<svg width="183" height="51" viewBox="0 0 183 51" fill="none" xmlns="http://www.w3.org/2000/svg">
<path d="M14.1915 23.6712C14.1915 22.756 13.8682 22.056 13.2216 21.5714C12.5749 21.076 11.411 20.5591 9.72969 20.0207C8.04841 19.4716 6.7174 18.933 5.73667 18.4054C3.06387 16.9624 1.72748 15.0187 1.72748 12.5742C1.72748 11.3035 2.08313 10.1728 2.79444 9.18212C3.51652 8.18065 4.54577 7.39992 5.88216 6.83996C7.22933 6.27999 8.73817 6 10.4087 6C12.0899 6 13.588 6.30691 14.9028 6.92072C16.2176 7.52376 17.2361 8.37987 17.9583 9.48903C18.6911 10.5982 19.0575 11.8581 19.0575 13.2688H14.2077C14.2077 12.1919 13.8682 11.3574 13.1892 10.7651C12.5102 10.1621 11.5565 9.86055 10.3278 9.86055C9.14232 9.86055 8.22085 10.1136 7.56344 10.6197C6.906 11.1151 6.5773 11.772 6.5773 12.5904C6.5773 13.355 6.9599 13.9957 7.72509 14.5126C8.50106 15.0295 9.63807 15.5141 11.1361 15.9663C13.8951 16.7956 15.9052 17.8238 17.166 19.0516C18.427 20.2791 19.0575 21.8083 19.0575 23.6389C19.0575 25.6743 18.2869 27.2733 16.7458 28.4364C15.2046 29.5886 13.1299 30.1647 10.5218 30.1647C8.71122 30.1647 7.06227 29.8363 5.575 29.1793C4.08773 28.5118 2.95071 27.6018 2.16395 26.4496C1.38798 25.2973 1 23.962 1 22.4436H5.86599C5.86599 25.0388 7.41794 26.3364 10.5218 26.3364C11.675 26.3364 12.5749 26.105 13.2216 25.6419C13.8682 25.1681 14.1915 24.5112 14.1915 23.6712ZM60.184 25.9488H70.4819V29.8416H55.3342V6.32306H60.184V25.9488ZM86.8904 24.9958H78.387L76.7705 29.8416H71.6135L80.3755 6.32306H84.8697L93.6802 29.8416H88.5232L86.8904 24.9958ZM79.6965 21.0706H85.581L82.6226 12.2673L79.6965 21.0706ZM104.592 21.2322H100.729V29.8416H95.8787V6.32306H104.625C107.405 6.32306 109.55 6.94226 111.059 8.18065C112.568 9.41903 113.322 11.1689 113.322 13.4304C113.322 15.0348 112.972 16.3756 112.271 17.4524C111.581 18.5185 110.531 19.3691 109.119 20.0046L114.211 29.6155V29.8416H109.006L104.592 21.2322ZM100.729 17.3069H104.641C105.859 17.3069 106.802 17.0001 107.47 16.3863C108.138 15.7618 108.472 14.9057 108.472 13.818C108.472 12.7088 108.154 11.8366 107.518 11.2012C106.893 10.5659 105.929 10.2482 104.625 10.2482H100.729V17.3069ZM139.43 19.6492H130.118V25.9488H141.047V29.8416H125.269V6.32306H141.015V10.2482H130.118V15.8533H139.43V19.6492ZM152.314 14.4318L156.727 6.32306H162.305L155.451 17.9854L162.483 29.8416H156.841L152.314 21.6036L147.788 29.8416H142.146L149.179 17.9854L142.324 6.32306H147.901L152.314 14.4318ZM179.102 19.6492H169.79V25.9488H180.718V29.8416H164.94V6.32306H180.685V10.2482H169.79V15.8533H179.102V19.6492Z" fill="white"/>
<path d="M37.2453 10.1857C31.7384 10.1857 27.2581 14.6624 27.2581 20.1647C27.2581 25.6672 31.7384 30.1439 37.2453 30.1439C42.7523 30.1439 47.2325 25.6673 47.2325 20.1647C47.2325 14.6624 42.7523 10.1857 37.2453 10.1857ZM37.2453 28.3869C32.7078 28.3869 29.0165 24.6985 29.0165 20.1647C29.0165 15.6312 32.7078 11.9427 37.2453 11.9427C41.7826 11.9427 45.4739 15.6312 45.4739 20.1647C45.4739 24.6983 41.7826 28.3869 37.2453 28.3869Z" fill="white"/>
<path d="M37.246 3.62555C36.76 3.62555 36.3662 4.01886 36.3662 4.5041V7.96326C36.3662 8.4486 36.7601 8.84191 37.246 8.84191C37.7319 8.84191 38.1257 8.4486 38.1257 7.96336V4.5041C38.1257 4.01895 37.7319 3.62555 37.246 3.62555Z" fill="white"/>
<path d="M48.9502 8.46982C48.6067 8.12668 48.0501 8.12668 47.7066 8.46982L45.2585 10.9159C44.9151 11.2591 44.9151 11.8152 45.2585 12.1583C45.4301 12.3299 45.6551 12.4156 45.8802 12.4156C46.1052 12.4156 46.3302 12.3299 46.502 12.1583L48.95 9.71214C49.2935 9.36911 49.2935 8.81287 48.9502 8.46982Z" fill="white"/>
<path d="M29.2326 28.1713C28.8891 27.8284 28.3324 27.8282 27.9889 28.1713L25.5407 30.6174C25.1972 30.9606 25.1972 31.5168 25.5406 31.86C25.7125 32.0316 25.9373 32.1173 26.1625 32.1173C26.3875 32.1173 26.6125 32.0316 26.7841 31.86L29.2323 29.4138C29.5758 29.0707 29.5758 28.5144 29.2326 28.1713Z" fill="white"/>
<path d="M52.9192 19.2863H49.4569C48.9715 19.2863 48.5778 19.6795 48.5778 20.1648C48.5778 20.6499 48.9712 21.0434 49.4569 21.0434H52.9192C53.4049 21.0434 53.7985 20.65 53.7985 20.1648C53.7984 19.6795 53.4048 19.2863 52.9192 19.2863Z" fill="white"/>
<path d="M25.0339 19.2863H21.5719C21.0862 19.2863 20.6926 19.6795 20.6926 20.1648C20.6926 20.6499 21.0862 21.0434 21.5719 21.0434H25.0339C25.5198 21.0434 25.9132 20.65 25.9132 20.1648C25.9132 19.6795 25.5198 19.2863 25.0339 19.2863Z" fill="white"/>
<path d="M28.9492 10.7033L26.501 8.25729C26.1577 7.91414 25.601 7.91433 25.2576 8.25729C24.9141 8.60044 24.9141 9.15667 25.2577 9.49981L27.7058 11.9459C27.8774 12.1174 28.1024 12.2033 28.3274 12.2033C28.5524 12.2033 28.7774 12.1175 28.9493 11.9459C29.2925 11.6027 29.2925 11.0464 28.9492 10.7033Z" fill="white"/>
<path d="M48.9502 30.6175L46.5021 28.1714C46.1588 27.8282 45.6021 27.8282 45.2585 28.1714C44.9151 28.5145 44.9151 29.0707 45.2585 29.4137L47.7066 31.8598C47.8783 32.0314 48.1033 32.1172 48.3284 32.1172C48.5534 32.1172 48.7784 32.0314 48.9502 31.8598C49.2937 31.5167 49.2937 30.9606 48.9502 30.6175Z" fill="white"/>
<path d="M60.2887 48.7499L60.5329 46.9708L60.6441 46.1609L65.5092 46.8276C65.9902 46.8937 66.4337 46.5575 66.4998 46.0767C66.5657 45.5958 66.2293 45.1528 65.7481 45.0869L60.883 44.4202L61.4853 40.0331L66.3503 40.6998C66.8313 40.7658 67.2749 40.4296 67.3409 39.9488C67.407 39.4679 67.0704 39.025 66.5893 38.959L61.7242 38.2923L61.8354 37.4824L62.0796 35.7033C62.1457 35.2225 61.8091 34.7795 61.328 34.7136C60.847 34.6476 60.4033 34.9838 60.3374 35.4646L60.2127 36.3733L55.9099 35.7835C53.1077 35.3995 50.4956 37.1404 49.7073 39.7669L41.9621 38.7055C39.4269 38.358 37.647 36.0144 37.9948 33.4812L38.2759 31.4335C38.3419 30.9527 38.0054 30.5097 37.5242 30.4437C37.0431 30.3778 36.5997 30.7138 36.5336 31.1948L36.2526 33.2425C35.7731 36.7356 38.2271 39.967 41.723 40.4462L49.4683 41.5076C49.5197 44.2491 51.5662 46.6286 54.3684 47.0126L58.6711 47.6023L58.5464 48.5109C58.4805 48.9917 58.8169 49.4347 59.2981 49.5007C59.7793 49.5667 60.2228 49.2306 60.2887 48.7499ZM54.6075 45.272C52.4697 44.9789 50.9692 43.0028 51.2623 40.867C51.5555 38.731 53.5333 37.2315 55.671 37.5245L59.9738 38.1142L58.9103 45.8618L54.6075 45.2721V45.272Z" fill="white"/>
<path d="M104.343 3.13544C104.828 3.13544 105.222 2.74211 105.222 2.25691C105.222 1.77169 104.828 1.37836 104.343 1.37836C103.857 1.37836 103.463 1.77169 103.463 2.25691C103.463 2.74211 103.857 3.13544 104.343 3.13544Z" fill="white"/>
<path d="M100.204 3.13544C100.69 3.13544 101.084 2.74211 101.084 2.25691C101.084 1.77169 100.69 1.37836 100.204 1.37836C99.7184 1.37836 99.3245 1.77169 99.3245 2.25691C99.3245 2.74211 99.7184 3.13544 100.204 3.13544Z" fill="white"/>
</svg>
